…
ras_1d_sed
```

    ## # A tibble: 181 × 26
    ##    reach   river…¹ profile loc   disch…² cross…³ hydra…⁴ cross…⁵ min_c…⁶ w_s_e…⁷
    ##    <chr>     <dbl> <chr>   <chr>   <dbl>   <dbl>   <dbl> <chr>     <dbl>   <dbl>
    ##  1 Gleaso…   10800 Q2      total  650     107.      2.82 H          352.    357.
    ##  2 Gleaso…   10800 Q2      chan…  650     107.      2.82 H          352.    357.
    ##  3 Gleaso…   10800 Q5      total 1200     179.      3.73 H          352.    359.
    ##  4 Gleaso…   10800 Q5      chan… 1200.    179.      3.9  H          352.    359.
    ##  5 Gleaso…   10800 Q5      right    0.03    0.16    0.08 H          352.    359.
    ##  6 Gleaso…   10800 Q100 F… total 4300     404.      3.83 H          352.    362.
    ##  7 Gleaso…   10800 Q100 F… chan… 4111.    314.      5.64 H          352.    362.
    ##  8 Gleaso…   10800 Q100 F… left     0.43    1.06    0.17 H          352.    362.
    ##  9 Gleaso…   10800 Q100 F… right  188.     89.4     2.04 H          352.    362.
    ## 10 Gleaso…   10800 Q100 AC total 5200     495.      4    H          352.    363.
    ## # … with 171 more rows, 16 more variables: e_g_slope_ft_ft <dbl>,
    ## #   q_total_cfs <dbl>, series <chr>, velocity_ft_s <dbl>, slope <dbl>,
    ## #   velocity_m_s <dbl>, hydraulic_radius_m <dbl>,
    ## #   cross_sectional_area_m2 <dbl>, critical_shields_number <dbl>,
    ## #   grain_size_mobilized_mm <dbl>, grain_size_mobilized_phi <dbl>,
    ## #   shear_velocity_cm_s <dbl>, settling_velocity_ndim <dbl>,
    ## #   grain_size_suspended_ndim <dbl>, grain_size_suspended_mm <dbl>, …
…
